Assignment 1: Census Data Quality for Policy Decisions – Angel Rutherford - MUSA 5080 Portfolio
…
Hint: Use mutate() with case_when() for the categories.

# Calculate MOE percentage and reliability categories using mutate()
county_data <-county_data%>%
  mutate(MOE_PCT=(median_incomeM/median_incomeE)*100,
  reliability = case_when(
    MOE_PCT < 5 ~ "High Confidence (<5%)",
    MOE_PCT <= 10 ~ "Moderate Confidence (5%-10%)",
    TRUE ~ "Low Confidence (>10%)"
    )
  )
county_data

# A tibble: 67 × 9
   GEOID NAME    median_incomeE median_incomeM total_popE total_popM county_name
   <chr> <chr>            <dbl>          <dbl>      <dbl>      <dbl> <chr>      
 1 42001 Adams …          78975           3334     104604         NA Adams      
 2 42003 Allegh…          72537            869    1245310         NA Allegheny  
 3 42005 Armstr…          61011           2202      65538         NA Armstrong  
 4 42007 Beaver…          67194           1531     167629         NA Beaver     
 5 42009 Bedfor…          58337           2606      47613         NA Bedford    
 6 42011 Berks …          74617           1191     428483         NA Berks      
 7 42013 Blair …          59386           2058     122640         NA Blair      
 8 42015 Bradfo…          60650           2167      60159         NA Bradford   
 9 42017 Bucks …         107826           1516     645163         NA Bucks      
10 42019 Butler…          82932           2164     194562         NA Butler     
# ℹ 57 more rows
# ℹ 2 more variables: MOE_PCT <dbl>, reliability <chr>
…
tract_data

# A tibble: 413 × 10
   GEOID       NAME   whiteE whiteM blackE blackM hispanicE hispanicM total_popE
   <chr>       <chr>   <dbl>  <dbl>  <dbl>  <dbl>     <dbl>     <dbl>      <dbl>
 1 42003010301 Censu…    755    108   1086    125        60        47       2028
 2 42003010302 Censu…   3283    254    678    174       269       147       4631
 3 42003020100 Censu…   2915    319    541    142       192       102       4310
 4 42003020300 Censu…   1170    201     15     23        44        32       1471
 5 42003030500 Censu…    724    179   1821    451       135       101       3044
 6 42003040200 Censu…    947    234    493    140        53        30       1843
 7 42003040400 Censu…   1192    216     61     49        17        21       1629
 8 42003040500 Censu…   2342    404     79     63        88        56       2840
 9 42003040600 Censu…   1928    417     69     63        67        60       2302
10 42003040900 Censu…   2496    409    609    248        92        63       3722
# ℹ 403 more rows
# ℹ 1 more variable: total_popM <dbl>
…
